{
  "project_info": {
    "project_number": "391423605963",
    "firebase_url": "https://wg-app-9ae5d.firebaseio.com",
    "project_id": "wg-app-9ae5d",
    "storage_bucket": "wg-app-9ae5d.appspot.com"
  },
  "client": [
    {
      "client_info": {
        "mobilesdk_app_id": "1:391423605963:android:ed9eae2337afb7cd",
        "android_client_info": {
          "package_name": "com.studios.bobbycarpirat.wgapplication"
        }
      },
      "oauth_client": [
        {
          "client_id": "391423605963-6crjbm7fl6n8bfidcdduo3ho2gah6ffc.apps.googleusercontent.com",
          "client_type": 3
        }
      ],
      "api_key": [
        {
          "current_key": "AIzaSyBlJ8jd8f8TftPv9HoJPEy5uRkrk03KHOo"
        }
      ],
      "services": {
        "analytics_service": {
          "status": 1
        },
        "appinvite_service": {
          "status": 1,
          "other_platform_oauth_client": []
        },
        "ads_service": {
          "status": 2
        }
      }
    }
  ],
  "configuration_version": "1"
}